[
    {
        "otid": "invisible",
        "type": "terrain",
        "icon": [{"py/glyph": "invisible"}]
    },

    {
        "otid": "ocean_floor",
        "type": "terrain",
        "icon": [{"py/glyph": "floor"}, {"py/color": "royal_blue"}, {"py/color": "valhalla"}]
    }
]
