[
    {
        "otid": "hippocampus",
        "type": "monster",
        "components": {
            "descr": {
                "name": "hippocampus",
                "descr": "Hippocampus, better known as a seahorse.",
                "faction": "wild_fishes"
            },
            "icon": [{"py/glyph": "hippocampus"}, {"py/color": "pancho"}],
            "props": {
                "obstacle": true,
                "transparent": true
            },
            "stats": {
                "dices": [{"py/dice": "1d4+1"}],
                "base_dmg": {"py/dice": "1d2"},
                "base_ac": 9
            },
            "scripts": {
                "created": {"py/script": "monster.created"},
                "triggered": {"py/script": "monster.triggered"},
                "every_turn": {"py/script": "monster.every_turn"},
                "destroyed": {"py/script": "monster.destroyed"},
                "seen": {"py/script": "monster.seen"}
            },
            "actions": {},
            "effects": {},
            "ai": {}
        }
    },

    {
        "otid": "starfish",
        "type": "monster",

        "encountered": ["caves"],
        "rarity": 3,
        "depth_start": 2,

        "components": {
            "descr": {
                "name": "starfish",
                "descr": "Starfishes are rather static but sturdy enemies.",
                "faction": "wild_fishes"
            },
            "icon": [{"py/glyph": "starfish"}, {"py/color": "pancho"}],
            "props": {
                "obstacle": true,
                "transparent": true,
                "move_cost": 3
            },
            "stats": {
                "dices": [{"py/dice": "4d4"}],
                "base_dmg": {"py/dice": "1d2"},
                "base_ac": 10
            },
            "scripts": {
                "created": {"py/script": "monster.created"},
                "triggered": {"py/script": "monster.triggered"},
                "every_turn": {"py/script": "monster.every_turn"},
                "destroyed": {"py/script": "monster.destroyed"},
                "seen": {"py/script": "monster.seen"}
            },
            "actions": {},
            "effects": {},
            "ai": {}
        }
    }
]
